{
    "KPlugin": {
        "Category": "Appearance",
        "Description": "Animates system style changes",
        "Description[ar]": "تغيرات نمط تحريكات النظام",
        "Description[az]": "Sistem tərzi dəyişikliklərini canlandırır",
        "Description[ca@valencia]": "Anima els canvis d'estil del sistema",
        "Description[ca]": "Anima els canvis d'estil del sistema",
        "Description[es]": "Anima los cambios de estilo del sistema",
        "Description[fr]": "Anime les modifications de style du système",
        "Description[ko]": "시스템 스타일 변경 애니메이션",
        "Description[nl]": "Systeemstijl wijzigingen animeren",
        "Description[pt_BR]": "Animar alterações de estilo do sistema",
        "Description[sl]": "Animiraj spremembe sloga sistema",
        "Description[sv]": "Animerar systemets stiländringar",
        "Description[uk]": "Анімація змін у стилі системи",
        "Description[vi]": "Tạo hiệu ứng động cho các thay đổi kiểu cách hệ thống",
        "Description[x-test]": "xxAnimates system style changesxx",
        "Description[zh_CN]": "动画过渡系统风格更改",
        "EnabledByDefault": true,
        "Id": "blendchanges",
        "License": "GPL",
        "Name": "Blend Changes",
        "Name[ar]": "تغييرات الخلط",
        "Name[az]": "Dəyişikliklərin birləşdirilməsi",
        "Name[ca@valencia]": "Transició de canvis",
        "Name[ca]": "Transició de canvis",
        "Name[es]": "Mezclar cambios",
        "Name[fr]": "Modifications des mélanges",
        "Name[ko]": "변경 섞기",
        "Name[nl]": "Wijzigingen mengen",
        "Name[pt_BR]": "Misturar alterações",
        "Name[sl]": "Zmešaj spremembe",
        "Name[sv]": "Blanda ändringar",
        "Name[uk]": "Злиття змін",
        "Name[vi]": "Pha trộn các thay đổi",
        "Name[x-test]": "xxBlend Changesxx",
        "Name[zh_CN]": "平滑过渡更改"
    },
    "org.kde.kwin.effect": {
        "internal": true
    }
}
